{
    "page": 1,
    "per_page": 6,
    "total": 12,
    "total_pages": 2,
    "data": [
        {
            "name": "Central Service",
            "parent": "null",
            "children": [
                {
                    "name": "productService",
                    "parent": "Central Service",
                    "children":[
                        {
                            "name": "GET /products",
                            "parent": "productService"
                        },
                        {
                            "name": "GET /product/{product_id}",
                            "parent": "productService"
                        },
                        {
                            "name": "GET /products/browse",
                            "parent": "productService"
                        }
                    ]
                },
                {
                    "name": "loginService",
                    "parent": "Central Service",
                    "children":[
                        {
                            "name": "POST /logout",
                            "parent": "loginService"
                        },
                        {
                            "name": "POST /login",
                            "parent": "loginService"
                        }
                    ]
                },
                {
                    "name": "orderService",
                    "parent": "Central Service",
                    "children":[
                        {
                            "name": "GET /order/{order_id}",
                            "parent": "orderService"
                        }
                    ]
                },
                {
                    "name": "adminService",
                    "parent": "Central Service",
                    "children":[
                        {
                            "name": "GET /admin/stats",
                            "parent": "orderService"
                        }
                    ]
                }
            ]
        }
    ]
}