{
  "page": 1,
  "per_page": 6,
  "total": 12,
  "total_pages": 2,
  "data": [
    {
      "service": "/product/{product_id}",
      "method": "GET",
      "calls": 120,
      "limit": 120,
      "percentage": 100
    },
    {
      "service": "/products/browse",
      "method": "GET",
      "calls": 98,
      "limit": 120,
      "percentage": 79.03
    },
    {
      "service": "/logout",
      "method": "POST",
      "calls": 63,
      "limit": 120,
      "percentage": 50.81
    },
    {
      "service": "/login",
      "method": "POST",
      "calls": 63,
      "limit": 120,
      "percentage": 50.81
    },
    {
      "service": "/products",
      "method": "GET",
      "calls": 50,
      "limit": 120,
      "percentage": 40.53
    },
    {
      "service": "/order/{order_id}",
      "method": "GET",
      "calls": 14,
      "limit": 120,
      "percentage": 11.29
    },
    {
      "service": "/admin/stats",
      "method": "GET",
      "calls": 10,
      "limit": 120,
      "percentage": 8.06
    }
  ]
}