{
    "page": 1,
    "per_page": 6,
    "total": 12,
    "total_pages": 2,
    "data": [
        {
            "name": "Central Service",
            "parent": "null",
            "children": [
                {
                    "name": "GET /products",
                    "parent": "Central Service"
                },
                {
                    "name": "GET /product/{product_id}",
                    "parent": "Central Service"
                },
                {
                    "name": "GET /products/browse",
                    "parent": "Central Service"
                },
                {
                    "name": "POST /logout",
                    "parent": "Central Service"
                },
                {
                    "name": "POST /login",
                    "parent": "Central Service"
                },
                {
                    "name": "GET /order/{order_id}",
                    "parent": "Central Service"
                },
                {
                    "name": "GET /admin/stats",
                    "parent": "Central Service"
                }
            ]
        }
    ]
}