{
    "page": 1,
    "per_page": 6,
    "total": 12,
    "total_pages": 2,
    "data": [
        {
            "service": "productService",
            "type": "API",
            "method": "GET",
            "endpoint": "/product/{product_id}",
            "service_first_discovered": 1604066651000000,
            "communication_first_discovered": 1601066651000,
            "last_updated": 1601066651000,
            "sensitive_flag": "Yes",
            "non_conformance_count": 39,
            "calls": 120,
            "data_exchange": 13234,
            "latency": 253,
            "error": 0
        },
        {
            "service": "productService",
            "type": "DB",
            "method": "GET",
            "endpoint": "/products",
            "service_first_discovered": 1601066651000,
            "communication_first_discovered": 1601065651000,
            "last_updated": 1601066651000,
            "sensitive_flag": "No",
            "non_conformance_count": 2,
            "calls": 100,
            "data_exchange": 11234,
            "latency": 25,
            "error": 12
        },
        {
            "service": "orderService",
            "type": "API",
            "method": "POST",
            "endpoint": "/order/{order_id}",
            "service_first_discovered": 1604062651000,
            "communication_first_discovered": 1600966651000,
            "last_updated": 1601066651000,
            "sensitive_flag": "Yes",
            "non_conformance_count": 142,
            "calls": 112,
            "data_exchange": 1234,
            "latency": 5,
            "error": 8
        },
        {
            "service": "productService",
            "type": "DB",
            "method": "GET",
            "endpoint": "/products/{product_id}",
            "service_first_discovered": 1604062651000,
            "communication_first_discovered": 1600766651000,
            "last_updated": 1601066651000,
            "sensitive_flag": "No",
            "non_conformance_count": 234,
            "calls": 19,
            "data_exchange": 11224,
            "latency": 15,
            "error": 11
        },
        {
            "service": "orderService",
            "type": "API",
            "method": "POST",
            "endpoint": "/orders",
            "service_first_discovered": 1604065651000,
            "communication_first_discovered": 1601016651000,
            "sensitive_flag": "Yes",
            "non_conformance_count": 44,
            "calls": 111,
            "data_exchange": 114,
            "latency": 2,
            "error": 0
        },
        {
            "service": "loginService",
            "type": "DB",
            "method": "GET",
            "endpoint": "/login",
            "service_first_discovered": 1604061651000,
            "communication_first_discovered": 1600066651000,
            "last_updated": 1601066651000,
            "sensitive_flag": "Yes",
            "non_conformance_count": 14,
            "calls": 321,
            "data_exchange": 5432,
            "latency": 10,
            "error": 4
        },
        {
            "service": "loginService",
            "type": "API",
            "method": "PUT",
            "endpoint": "/logout",
            "service_first_discovered": 1604016651000,
            "communication_first_discovered": 1601063651000,
            "last_updated": 1601066651000,
            "sensitive_flag": "No",
            "non_conformance_count": 41,
            "calls": 253,
            "data_exchange": 1642,
            "latency": 6,
            "error": 15
        }
    ]
}